
<svg width="63px" height="62px" viewBox="377 346 63 62" version="1.1" xmlns="http://www.w3.org/2000/svg" xmlns:xlink="http://www.w3.org/1999/xlink">
    <!-- Generator: Sketch 41.2 (35397) - http://www.bohemiancoding.com/sketch -->
    <desc>Created with Sketch.</desc>
    <defs></defs>
    <g id="Page-1" stroke="none" stroke-width="1" fill="none" fill-rule="evenodd" transform="translate(377.000000, 347.000000)">
        <polygon id="Fill-1" fill="#AA7522" points="9 -0.0001 0 16.4999 62.5 16.4999 55.25 -0.0001"></polygon>
        <polygon id="Fill-2" fill="#4F4F4F" points="19.1457 51.5123 14.2497 60.4883 48.2497 60.4883 44.3057 51.5123"></polygon>
        <polygon id="Fill-3" fill="#181818" points="28.75 56 33.75 56 33.75 16.5 28.75 16.5"></polygon>
    </g>
</svg>