[{"idcurrency":"1","name":"Defaut","iso":"trs","symbol":"D$","exchange_rate":null,"exchange_unit":null,"smallest_denomination":null,"account":null,"iban":null,"bic":null,"account_currency_code":null,"date_create":"2017-03-17 18:13:43","date_update":null,"date_delete":null,"active":"1"}, {"idcurrency":"2","name":"Defaut","iso":"trs","symbol":"D$","exchange_rate":null,"exchange_unit":null,"smallest_denomination":null,"account":null,"iban":null,"bic":null,"account_currency_code":null,"date_create":"2017-08-09 16:14:45","date_update":null,"date_delete":null,"active":"1"}, {"idcurrency":"3","name":"Defaut","iso":"trs","symbol":"D$","exchange_rate":null,"exchange_unit":null,"smallest_denomination":null,"account":null,"iban":null,"bic":null,"account_currency_code":null,"date_create":"2017-08-09 16:14:53","date_update":null,"date_delete":null,"active":"1"}, {"idcurrency":"4","name":"Defaut","iso":"trs","symbol":"D$","exchange_rate":null,"exchange_unit":null,"smallest_denomination":null,"account":null,"iban":null,"bic":null,"account_currency_code":null,"date_create":"2017-08-09 16:24:04","date_update":null,"date_delete":null,"active":"1"}, {"idcurrency":"5","name":"Defaut","iso":"trs","symbol":"D$","exchange_rate":null,"exchange_unit":null,"smallest_denomination":null,"account":null,"iban":null,"bic":null,"account_currency_code":null,"date_create":"2017-08-09 16:36:55","date_update":null,"date_delete":null,"active":"1"}, {"idcurrency":"6","name":"Defaut","iso":"trs","symbol":"D$","exchange_rate":null,"exchange_unit":null,"smallest_denomination":null,"account":null,"iban":null,"bic":null,"account_currency_code":null,"date_create":"2017-08-09 16:38:37","date_update":null,"date_delete":null,"active":"1"}]
[{"idinvoice_tmpt":"2","tmpt_header_idtmpt_header":"1","tmpt_footer_idtmpt_footer":"1","name":"theme1","info":"qwe wqe qwe qweq we qwe weq","font_size":"12","alternate_color_line":"1","print_customer_phone":"0","date_create":"2017-08-16 08:34:45","date_update":null,"date_delete":null,"active":"1"}]
[{"idlanguage":"1","name":"asd","date_create":"2017-08-15 16:52:11","date_update":null,"date_delete":null,"active":"1"}]
[{"idperson":"1","pos_idpos":"1","customer_gp_idcustomer_gp":"1","users_idusers":null,"zz_state_idzz_state":null,"person_settings_idperson_settings":null,"payment_mtd_idpayment_mtd":null,"department_iddepartment":null,"name":"","document_type":null,"document_number":"5","birth_date":null,"personal_number":null,"contact_person":null,"info":null,"genre":null,"electronic_identification":null,"date_creation":"2017-08-09 16:12:09","date_update":null,"date_delete":null,"active":"0"}, {"idperson":"2","pos_idpos":null,"customer_gp_idcustomer_gp":"1","users_idusers":null,"zz_state_idzz_state":null,"person_settings_idperson_settings":null,"payment_mtd_idpayment_mtd":null,"department_iddepartment":null,"name":"claudio","document_type":null,"document_number":"1","birth_date":null,"personal_number":null,"contact_person":null,"info":null,"genre":null,"electronic_identification":null,"date_creation":"2017-08-10 15:07:17","date_update":null,"date_delete":null,"active":"1"}, {"idperson":"3","pos_idpos":"1","customer_gp_idcustomer_gp":"47","users_idusers":"1","zz_state_idzz_state":"1","person_settings_idperson_settings":"5","payment_mtd_idpayment_mtd":"3","department_iddepartment":"1","name":"claudio","document_type":null,"document_number":null,"birth_date":"01\/29\/2009","personal_number":null,"contact_person":"asdsadsa","info":"tretrte","genre":"1","electronic_identification":"123","date_creation":"2017-08-16 14:14:32","date_update":null,"date_delete":null,"active":"0"}, {"idperson":"5","pos_idpos":"1","customer_gp_idcustomer_gp":"47","users_idusers":"1","zz_state_idzz_state":"1","person_settings_idperson_settings":"7","payment_mtd_idpayment_mtd":"3","department_iddepartment":"1","name":"ciloba","document_type":null,"document_number":null,"birth_date":"06\/21\/1994","personal_number":null,"contact_person":"fsdfsadgg","info":"were","genre":"1","electronic_identification":"qwewe","date_creation":"2017-08-16 14:34:57","date_update":null,"date_delete":null,"active":"0"}, {"idperson":"7","pos_idpos":"1","customer_gp_idcustomer_gp":"48","users_idusers":"1","zz_state_idzz_state":"1","person_settings_idperson_settings":"9","payment_mtd_idpayment_mtd":"3","department_iddepartment":"1","name":"pindoba","document_type":null,"document_number":"0","birth_date":"02\/08\/2000","personal_number":"1","contact_person":"fdsfsd","info":"ghjgh","genre":"1","electronic_identification":"3233","date_creation":"2017-08-16 14:40:35","date_update":null,"date_delete":null,"active":"0"}, {"idperson":"8","pos_idpos":"1","customer_gp_idcustomer_gp":"47","users_idusers":"1","zz_state_idzz_state":"1","person_settings_idperson_settings":"10","payment_mtd_idpayment_mtd":"6","department_iddepartment":"1","name":"pindobinha","document_type":null,"document_number":"2","birth_date":"02\/08\/2000","personal_number":null,"contact_person":"fdksfskdfks","info":"hgjkg","genre":"1","electronic_identification":"fgdfg","date_creation":"2017-08-16 14:44:30","date_update":null,"date_delete":null,"active":"1"}, {"idperson":"9","pos_idpos":"1","customer_gp_idcustomer_gp":"49","users_idusers":"2","zz_state_idzz_state":"1","person_settings_idperson_settings":"11","payment_mtd_idpayment_mtd":"3","department_iddepartment":"1","name":"hkdhfkhsd'f","document_type":null,"document_number":"3","birth_date":"02\/17\/2010","personal_number":null,"contact_person":"dfhdfks","info":"jhjkhxdkz","genre":"1","electronic_identification":"5656456","date_creation":"2017-08-16 14:52:26","date_update":null,"date_delete":null,"active":"0"}, {"idperson":"10","pos_idpos":"1","customer_gp_idcustomer_gp":"48","users_idusers":"1","zz_state_idzz_state":"1","person_settings_idperson_settings":"12","payment_mtd_idpayment_mtd":"5","department_iddepartment":"1","name":"cilobinha","document_type":null,"document_number":null,"birth_date":"02\/02\/2010","personal_number":null,"contact_person":"bybybuy","info":"hkhkjh","genre":"1","electronic_identification":"345","date_creation":"2017-08-16 14:56:58","date_update":null,"date_delete":null,"active":"1"}, {"idperson":"11","pos_idpos":"1","customer_gp_idcustomer_gp":"47","users_idusers":"1","zz_state_idzz_state":"1","person_settings_idperson_settings":"13","payment_mtd_idpayment_mtd":"5","department_iddepartment":"1","name":"fred","document_type":null,"document_number":null,"birth_date":"02\/09\/2010","personal_number":null,"contact_person":"dfhdfks","info":"hlkhljhll","genre":"1","electronic_identification":"679","date_creation":"2017-08-16 14:59:28","date_update":null,"date_delete":null,"active":"1"}, {"idperson":"12","pos_idpos":"1","customer_gp_idcustomer_gp":"47","users_idusers":"1","zz_state_idzz_state":"1","person_settings_idperson_settings":"14","payment_mtd_idpayment_mtd":"6","department_iddepartment":"1","name":"asd","document_type":null,"document_number":null,"birth_date":"02\/08\/2000","personal_number":null,"contact_person":"dfhdfks","info":"uyouooyoiy","genre":"1","electronic_identification":"7087","date_creation":"2017-08-16 15:02:20","date_update":null,"date_delete":null,"active":"1"}, {"idperson":"14","pos_idpos":"1","customer_gp_idcustomer_gp":"47","users_idusers":"1","zz_state_idzz_state":"1","person_settings_idperson_settings":"16","payment_mtd_idpayment_mtd":"3","department_iddepartment":"1","name":"we","document_type":null,"document_number":null,"birth_date":"02\/09\/2010","personal_number":null,"contact_person":"nnn","info":"iuoiuiouiouoiuiouoiuoiu","genre":"1","electronic_identification":"675","date_creation":"2017-08-16 15:07:41","date_update":null,"date_delete":null,"active":"1"}, {"idperson":"16","pos_idpos":"1","customer_gp_idcustomer_gp":"47","users_idusers":"1","zz_state_idzz_state":"1","person_settings_idperson_settings":"18","payment_mtd_idpayment_mtd":"6","department_iddepartment":"1","name":"novo","document_type":null,"document_number":null,"birth_date":"02\/10\/2010","personal_number":null,"contact_person":"fdsfsd","info":"oipoip","genre":"1","electronic_identification":"789","date_creation":"2017-08-16 15:12:20","date_update":null,"date_delete":null,"active":"1"}, {"idperson":"19","pos_idpos":"1","customer_gp_idcustomer_gp":"47","users_idusers":"1","zz_state_idzz_state":"1","person_settings_idperson_settings":"21","payment_mtd_idpayment_mtd":"3","department_iddepartment":"1","name":"hsgdfhasdg","document_type":null,"document_number":null,"birth_date":"07\/06\/2000","personal_number":null,"contact_person":"fdsfsd","info":"qweqweqw","genre":"1","electronic_identification":"12342342","date_creation":"2017-08-16 19:46:51","date_update":null,"date_delete":null,"active":"1"}, {"idperson":"21","pos_idpos":"1","customer_gp_idcustomer_gp":"49","users_idusers":"2","zz_state_idzz_state":"1","person_settings_idperson_settings":"23","payment_mtd_idpayment_mtd":"3","department_iddepartment":"1","name":"hkdhfkhsd","document_type":null,"document_number":null,"birth_date":"01\/02\/1989","personal_number":null,"contact_person":"fdsfsd","info":"rtertretertrt","genre":"1","electronic_identification":"34534","date_creation":"2017-08-16 22:00:31","date_update":null,"date_delete":null,"active":"1"}, {"idperson":"22","pos_idpos":"1","customer_gp_idcustomer_gp":"48","users_idusers":"2","zz_state_idzz_state":"1","person_settings_idperson_settings":"24","payment_mtd_idpayment_mtd":"5","department_iddepartment":"1","name":"Claudio","document_type":null,"document_number":null,"birth_date":"02\/06\/2017","personal_number":null,"contact_person":"claudio@qwe.com","info":"asdasdsad","genre":"1","electronic_identification":"09890","date_creation":"2017-08-16 22:07:19","date_update":null,"date_delete":null,"active":"1"}, {"idperson":"23","pos_idpos":"1","customer_gp_idcustomer_gp":"47","users_idusers":"2","zz_state_idzz_state":"1","person_settings_idperson_settings":"25","payment_mtd_idpayment_mtd":"3","department_iddepartment":"1","name":"teste","document_type":null,"document_number":null,"birth_date":"01\/02\/2017","personal_number":null,"contact_person":"fdksfskdfks","info":"wewq","genre":"1","electronic_identification":"4564564","date_creation":"2017-08-17 13:38:21","date_update":null,"date_delete":null,"active":"1"}, {"idperson":"24","pos_idpos":"1","customer_gp_idcustomer_gp":"47","users_idusers":"1","zz_state_idzz_state":"1","person_settings_idperson_settings":"26","payment_mtd_idpayment_mtd":"3","department_iddepartment":"1","name":"hsgdfhasdg","document_type":null,"document_number":null,"birth_date":"01\/02\/1989","personal_number":null,"contact_person":"sdfsd","info":"rtgrtgre","genre":"1","electronic_identification":"78675878","date_creation":"2017-08-17 14:04:55","date_update":null,"date_delete":null,"active":"1"}, {"idperson":"25","pos_idpos":"1","customer_gp_idcustomer_gp":"48","users_idusers":"2","zz_state_idzz_state":"1","person_settings_idperson_settings":"44","payment_mtd_idpayment_mtd":"3","department_iddepartment":"1","name":"testeCheckbox64145","document_type":null,"document_number":null,"birth_date":"Vm0xMFlWWXhWWGhVYmxKV1ltdHdUMVpzV21GWlZsSlZVb","personal_number":null,"contact_person":"fhdskfkhsdhf","info":"asdasdas","genre":"1","electronic_identification":"09898","date_creation":"2017-08-17 18:11:35","date_update":null,"date_delete":null,"active":"1"}, {"idperson":"27","pos_idpos":"1","customer_gp_idcustomer_gp":"48","users_idusers":"2","zz_state_idzz_state":"1","person_settings_idperson_settings":"46","payment_mtd_idpayment_mtd":"5","department_iddepartment":"1","name":"Claudio","document_type":null,"document_number":null,"birth_date":"08\/10\/2017","personal_number":null,"contact_person":"junior","info":"awdawdwa","genre":"1","electronic_identification":"342343243","date_creation":"2017-08-17 18:19:29","date_update":null,"date_delete":null,"active":"1"}, {"idperson":"28","pos_idpos":"1","customer_gp_idcustomer_gp":"47","users_idusers":"1","zz_state_idzz_state":"1","person_settings_idperson_settings":"53","payment_mtd_idpayment_mtd":"3","department_iddepartment":"1","name":"YW5WdWFXOXk=","document_type":null,"document_number":null,"birth_date":"01\/05\/2009","personal_number":null,"contact_person":"fhdskfkhsdhf","info":"qwewqewqewqe","genre":"1","electronic_identification":"123213213","date_creation":"2017-08-17 21:17:53","date_update":null,"date_delete":null,"active":"0"}, {"idperson":"29","pos_idpos":"1","customer_gp_idcustomer_gp":"47","users_idusers":"1","zz_state_idzz_state":"1","person_settings_idperson_settings":"56","payment_mtd_idpayment_mtd":"5","department_iddepartment":"1","name":"YXNk","document_type":null,"document_number":null,"birth_date":"08\/03\/2017","personal_number":null,"contact_person":"fdsfsd","info":"0","genre":"1","electronic_identification":"236546","date_creation":"2017-08-17 21:22:16","date_update":null,"date_delete":null,"active":"1"}, {"idperson":"30","pos_idpos":"1","customer_gp_idcustomer_gp":"47","users_idusers":"1","zz_state_idzz_state":"1","person_settings_idperson_settings":"62","payment_mtd_idpayment_mtd":"5","department_iddepartment":"1","name":"sdasdsad","document_type":null,"document_number":null,"birth_date":"06\/10\/2014","personal_number":null,"contact_person":"fdsfsd","info":"dasd","genre":"1","electronic_identification":"46757","date_creation":"2017-09-01 15:15:48","date_update":null,"date_delete":null,"active":"1"}, {"idperson":"31","pos_idpos":"1","customer_gp_idcustomer_gp":"47","users_idusers":"1","zz_state_idzz_state":"1","person_settings_idperson_settings":"61","payment_mtd_idpayment_mtd":"3","department_iddepartment":"1","name":"qweqwe","document_type":null,"document_number":null,"birth_date":"08\/15\/2017","personal_number":null,"contact_person":"123123","info":"0","genre":"1","electronic_identification":"4564454","date_creation":"2017-08-18 20:50:26","date_update":null,"date_delete":null,"active":"1"}, {"idperson":"32","pos_idpos":null,"customer_gp_idcustomer_gp":null,"users_idusers":null,"zz_state_idzz_state":null,"person_settings_idperson_settings":null,"payment_mtd_idpayment_mtd":null,"department_iddepartment":null,"name":"sdfsdfsdf","document_type":null,"document_number":null,"birth_date":null,"personal_number":null,"contact_person":null,"info":null,"genre":null,"electronic_identification":null,"date_creation":"2017-08-22 08:28:51","date_update":null,"date_delete":null,"active":"1"}]
[{"idproject":"1","name":"project1","description":"qweqweqw ewq ewqe wqe wqe wqe wq","date_start":null,"date_stop":null,"date_end":null,"price":"0.00","priceAdditional":"0.00","date_create":"2017-08-16 08:57:27","date_update":null,"date_delete":null,"active":"1"}, {"idproject":"2","name":"projeto1","description":"qwe wqe qweq weqw ewq eqwe","date_start":null,"date_stop":null,"date_end":null,"price":"123.00","priceAdditional":"123.00","date_create":"2017-08-16 08:58:00","date_update":null,"date_delete":null,"active":"1"}]
[{"idticket_tmpt":"1","title":"Demo","date_create":"2017-08-09 16:12:09","date_update":null,"date_delete":null,"active":"1","info":null,"print_two_lines":"0","print_promo_and_normal_price":"0","print_store_address":"0","print_product_tax":"0","print_product_details":"0","print_product_number":"0","print_tip":"0"}, {"idticket_tmpt":"2","title":"Default","date_create":"2017-08-09 16:14:45","date_update":null,"date_delete":null,"active":"1","info":null,"print_two_lines":"0","print_promo_and_normal_price":"0","print_store_address":"0","print_product_tax":"0","print_product_details":"0","print_product_number":"0","print_tip":"0"}, {"idticket_tmpt":"3","title":"Default","date_create":"2017-08-09 16:14:53","date_update":null,"date_delete":null,"active":"1","info":null,"print_two_lines":"0","print_promo_and_normal_price":"0","print_store_address":"0","print_product_tax":"0","print_product_details":"0","print_product_number":"0","print_tip":"0"}, {"idticket_tmpt":"4","title":"Default","date_create":"2017-08-09 16:24:04","date_update":null,"date_delete":null,"active":"1","info":null,"print_two_lines":"0","print_promo_and_normal_price":"0","print_store_address":"0","print_product_tax":"0","print_product_details":"0","print_product_number":"0","print_tip":"0"}, {"idticket_tmpt":"5","title":"Default","date_create":"2017-08-09 16:36:55","date_update":null,"date_delete":null,"active":"1","info":null,"print_two_lines":"0","print_promo_and_normal_price":"0","print_store_address":"0","print_product_tax":"0","print_product_details":"0","print_product_number":"0","print_tip":"0"}, {"idticket_tmpt":"6","title":"Default","date_create":"2017-08-09 16:38:37","date_update":null,"date_delete":null,"active":"1","info":null,"print_two_lines":"0","print_promo_and_normal_price":"0","print_store_address":"0","print_product_tax":"0","print_product_details":"0","print_product_number":"0","print_tip":"0"}]
[{"idperson_settings":"67","tax_free":null,"inv_show_customer_name":"1","inv_group_invoices":"1","inv_tax_free":"0","inv_invoice_print_exclusive":"0","inv_hide_products":"0","inv_electronic_invoice":"0","inv_info":null,"invoice_tmpt_idinvoice_tmpt":"2","inv_email":null,"inv_track_email":null,"currency_idcurrency":"1","person_idperson":"2","ord_show_info":null,"ord_hide_from_statistics":null,"ord_use_com_address":null,"ticket_tmpt_idticket_tmpt":"1","project_idproject":"1","ord_credit_limit":null,"charge_times":"1","language_idlanguage":"1","auth_receive_sms":"0","auth_receive_email":"0","date_create":"2017-09-14 08:44:57","date_update":null,"date_delete":null,"active":"1"}, {"idperson_settings":"68","tax_free":null,"inv_show_customer_name":"1","inv_group_invoices":"1","inv_tax_free":"0","inv_invoice_print_exclusive":"0","inv_hide_products":"0","inv_electronic_invoice":"0","inv_info":null,"invoice_tmpt_idinvoice_tmpt":"2","inv_email":null,"inv_track_email":null,"currency_idcurrency":"5","person_idperson":"8","ord_show_info":null,"ord_hide_from_statistics":null,"ord_use_com_address":null,"ticket_tmpt_idticket_tmpt":"1","project_idproject":"1","ord_credit_limit":null,"charge_times":"1","language_idlanguage":"1","auth_receive_sms":"0","auth_receive_email":"0","date_create":"2017-09-14 08:45:34","date_update":null,"date_delete":null,"active":"1"}]
[{"idpos":"1","nickname":"demo","macAddress":"demo","srv":"demo","idlicense":"1","date_create":"2017-08-09 16:12:09","date_update":null,"date_delete":null,"active":"1","ticket_tmpt_idticket_tmpt":"1","temp_ticket_tmpt_idtemp_ticket_tmpt":"1"}, {"idpos":"2","nickname":"demo2","macAddress":"demo2","srv":"demo2","idlicense":"1","date_create":"2017-08-23 11:08:29","date_update":null,"date_delete":null,"active":"1","ticket_tmpt_idticket_tmpt":null,"temp_ticket_tmpt_idtemp_ticket_tmpt":null}, {"idpos":"3","nickname":"demo3","macAddress":"demo3","srv":"demo3","idlicense":"1","date_create":"2017-08-23 11:29:04","date_update":null,"date_delete":null,"active":"1","ticket_tmpt_idticket_tmpt":null,"temp_ticket_tmpt_idtemp_ticket_tmpt":null}, {"idpos":"4","nickname":"demo4","macAddress":"demo4","srv":"asdsada","idlicense":"1","date_create":"2017-08-23 13:23:57","date_update":null,"date_delete":null,"active":"1","ticket_tmpt_idticket_tmpt":"1","temp_ticket_tmpt_idtemp_ticket_tmpt":"1"}, {"idpos":"5","nickname":"demo5","macAddress":"demo5","srv":"demo5","idlicense":"1","date_create":"2017-08-24 14:27:54","date_update":null,"date_delete":null,"active":"1","ticket_tmpt_idticket_tmpt":"1","temp_ticket_tmpt_idtemp_ticket_tmpt":"2"}, {"idpos":"6","nickname":"demo6","macAddress":"demo6","srv":"demo6","idlicense":"1","date_create":"2017-08-24 14:43:04","date_update":null,"date_delete":null,"active":"1","ticket_tmpt_idticket_tmpt":"1","temp_ticket_tmpt_idtemp_ticket_tmpt":"1"}, {"idpos":"7","nickname":"demo7","macAddress":"demo7","srv":"demo7","idlicense":"1","date_create":"2017-09-04 14:14:58","date_update":null,"date_delete":null,"active":"1","ticket_tmpt_idticket_tmpt":null,"temp_ticket_tmpt_idtemp_ticket_tmpt":null}]
[{"idpossettingsreceipts":"1","idpos":"1","data_type":"1","data_value":"1","date_create":"2017-09-12 11:53:36","date_update":null,"date_delete":null,"active":"1"}]
[{"idpossettingsfeatures":"1","idpos":"1","data_type":"1","data_value":"1","date_create":"2017-09-12 11:53:30","date_update":null,"date_delete":null,"active":"1"}]
[{"idpossettingsdeliverylist":"1","idpos":"1","data_type":"1","data_value":"1","date_create":"2017-09-12 11:53:23","date_update":null,"date_delete":null,"active":"1"}]
[{"idpossettingscreditnotes":"1","idpos":"1","data_type":"1","data_value":"1","date_create":"2017-09-12 11:53:15","date_update":null,"date_delete":null,"active":"1"}]
[{"idpossettingsclosingparameters":"1","idpos":"1","data_type":"parameter 1","data_value":"value 1","date_create":"2017-09-12 11:52:57","date_update":null,"date_delete":null,"active":"1"}]
[{"idcategory":"1","category_idcategory":null,"name":"product1","date_create":"2017-09-14 14:36:05","date_update":null,"date_delete":null,"active":"1"}]
[{"idproduct":"1","manufacturer_idmanufacturer":null,"currency_idcurrency":null,"currency_purchase_price":"1.23","unit_idunit":null,"product_collection_idcollection":null,"supplier_idsupplier":null,"product_department_idproduct_department":null,"warranty_idwarranty":null,"numberPack":"1","tax_gp":null,"print_for_pick_ist":null,"value_for_sell_brute":"0.00","value_for_sell_liquid":"2.23","net_weight":"0.00","additional_weight":"0","volume":"0.00","length":"0.00","width":"0.00","height":"0.00","minimum_purchase_of_packages":"0","minimum_purchase":"1","name":"asdasd","product_number":"","product_number_supplier":"","product_number_manufacturer":"","price":"0.00","price_purchase":"1.23","contribution":"0","promotion_weekdays":"","price_recommended":"0.00","price_takeaway":"0.00","price_purchase_list":"0.00","price_limit_bargain":"0.00","price_large_scale":"0.00","profit_gross_profit_value":"12311.00","barcode":"0","stock_enabled":"1","min_stock":"0","max_stock":"0","description":"","short_description":"","has_serial_number":"0","factor_purchase":"1","factor_sell":"1","has_components":"0","components_show_order_subitens":"0","has_size_and_color":"0","selling_product":"1","date_create":"2017-08-18 15:55:40","date_update":"2017-08-18 15:56:04","date_delete":null,"active":"1","section_idsection":null,"create_by":"1","output_control":"1","type_product":"1","prediction_of_purchase":"0","Importing_rate":"0","freight_tax_amount":"0","value_of_shipping":"1.23","number_of_serie_from_product":"0","base_of_calc":"0","multiple_units":"0","project":null}, {"idproduct":"3","manufacturer_idmanufacturer":null,"currency_idcurrency":"1","currency_purchase_price":"0.00","unit_idunit":null,"product_collection_idcollection":null,"supplier_idsupplier":null,"product_department_idproduct_department":null,"warranty_idwarranty":null,"numberPack":"1","tax_gp":null,"print_for_pick_ist":null,"value_for_sell_brute":"0.00","value_for_sell_liquid":"0.00","net_weight":"0.00","additional_weight":"0","volume":"0.00","length":"0.00","width":"0.00","height":"0.00","minimum_purchase_of_packages":"0","minimum_purchase":"1","name":"","product_number":"","product_number_supplier":"","product_number_manufacturer":"","price":"0.00","price_purchase":"0.00","contribution":"0","promotion_weekdays":"","price_recommended":"0.00","price_takeaway":"0.00","price_purchase_list":"0.00","price_limit_bargain":"0.00","price_large_scale":"0.00","profit_gross_profit_value":"0.00","barcode":"0","stock_enabled":"1","min_stock":"0","max_stock":"0","description":"","short_description":"","has_serial_number":"0","factor_purchase":"1","factor_sell":"1","has_components":"0","components_show_order_subitens":"0","has_size_and_color":"0","selling_product":"1","date_create":"2017-09-06 10:49:32","date_update":null,"date_delete":null,"active":"1","section_idsection":null,"create_by":"2","output_control":"0","type_product":"1","prediction_of_purchase":"0","Importing_rate":"0","freight_tax_amount":"0","value_of_shipping":"0.00","number_of_serie_from_product":"0","base_of_calc":"0","multiple_units":"0","project":"1"}, {"idproduct":"4","manufacturer_idmanufacturer":null,"currency_idcurrency":null,"currency_purchase_price":"30.00","unit_idunit":null,"product_collection_idcollection":null,"supplier_idsupplier":null,"product_department_idproduct_department":null,"warranty_idwarranty":null,"numberPack":"1","tax_gp":null,"print_for_pick_ist":null,"value_for_sell_brute":"0.00","value_for_sell_liquid":"0.00","net_weight":"0.00","additional_weight":"0","volume":"0.00","length":"0.00","width":"0.00","height":"0.00","minimum_purchase_of_packages":"0","minimum_purchase":"1","name":"qwe","product_number":null,"product_number_supplier":null,"product_number_manufacturer":null,"price":"0.00","price_purchase":"56.00","contribution":"0","promotion_weekdays":"t","price_recommended":"0.00","price_takeaway":"0.00","price_purchase_list":"0.00","price_limit_bargain":"0.00","price_large_scale":"0.00","profit_gross_profit_value":"0.00","barcode":"0","stock_enabled":"1","min_stock":"0","max_stock":"0","description":null,"short_description":null,"has_serial_number":"0","factor_purchase":"1","factor_sell":"1","has_components":"0","components_show_order_subitens":"0","has_size_and_color":"0","selling_product":"1","date_create":"2017-09-11 21:20:58","date_update":null,"date_delete":null,"active":"1","section_idsection":null,"create_by":"1","output_control":"1","type_product":"1","prediction_of_purchase":"0","Importing_rate":"0","freight_tax_amount":"0","value_of_shipping":"12.55","number_of_serie_from_product":"0","base_of_calc":"0","multiple_units":"0","project":null}]
[{"idproductadditional":"1","product_idproduct":"1","order":null,"additional_type":null,"info":null,"date_create":null,"date_update":null,"date_delete":null,"active":"1"}, {"idproductadditional":"2","product_idproduct":"3","order":null,"additional_type":null,"info":null,"date_create":null,"date_update":null,"date_delete":null,"active":"1"}]
[{"idproductadditionalitem":"1","id_product_additional":"1","product_idproduct":"3","group_idgroup":"1","price_type":"0","price":"0.00","qty":"0","bruk_factor":null,"date_create":"2017-09-14 14:28:03","date_update":null,"date_delete":null,"active":"1"}, {"idproductadditionalitem":"2","id_product_additional":"1","product_idproduct":"3","group_idgroup":"1","price_type":"0","price":"0.00","qty":"0","bruk_factor":null,"date_create":"2017-09-14 14:29:22","date_update":null,"date_delete":null,"active":"1"}]
[{"idproduct_category":"2","product_idproduct":"3","category_idcategory":"1"}]
[{"idproduct_component":"1","product_idproduct":"1","product_idproduct1":"1","qty":"1","cost_price":"0.00","retail_price":"0.00","date_create":"2017-09-14 14:38:23","date_update":null,"date_delete":null,"active":"1"}]
[{"idproduct_department":"1","name":"departament1","date_create":"2017-09-14 14:38:44","date_update":null,"date_delete":null,"active":"1"}]
[{"idproduct_gp":"1","product_gp_idproduct_gp":null,"name":"asdasd","printer":null,"rules":null,"department":"1","date_create":"2017-08-18 15:56:50","date_update":null,"date_delete":null,"active":"1"}, {"idproduct_gp":"2","product_gp_idproduct_gp":"1","name":"gruop1","printer":null,"rules":null,"department":"1","date_create":"2017-09-14 14:39:34","date_update":null,"date_delete":null,"active":"1"}]
[{"idproductgpalternatives":"1","idproductgp":"1","description":"","priceChange":null,"date_create":"2017-09-14 14:39:42","date_update":null,"date_delete":null,"active":"1"}]
[{"id_product_ included_and_substitute":"1","product_idproduct":"1","product_incl_subs":"1","type":"0","price":null,"date_create":"2017-09-14 14:39:57","date_update":null,"date_delete":null,"active":"1"}]
[{"idproduct":"1","product_idproduct":"1","percent":null,"the_sale_price_will":null,"do_not_put_a_selling_price":null,"do_not_allow_discount":null,"product_only_to_buy":null,"print_product_information_in_tax_coupon":null,"fill_quantity_based_on_the_information":null,"hide_from_statistics":null,"display_alternate":null,"the_purchase_price":null,"view_product_description":null,"do_not_show_product":null,"date_create":"2017-09-14 14:41:58","date_update":null,"date_delete":null,"active":"1"}, {"idproduct":"2","product_idproduct":"3","percent":null,"the_sale_price_will":null,"do_not_put_a_selling_price":null,"do_not_allow_discount":null,"product_only_to_buy":null,"print_product_information_in_tax_coupon":null,"fill_quantity_based_on_the_information":null,"hide_from_statistics":null,"display_alternate":null,"the_purchase_price":null,"view_product_description":null,"do_not_show_product":null,"date_create":"2017-09-14 14:42:07","date_update":null,"date_delete":null,"active":"1"}]
[{"idproduct_product_gp":"1","product_idproduct":"1","product_gp_idproduct_gp":"1"}]
[{"idproductpromotional":"1","idproduct":"1","gross_price":"0","initial_date":"2017-09-14 14:42:21","price_without_tax":"0","final_date":null,"week":"","date_create":null,"date_update":null,"date_delete":null,"active":"1"}]
[{"idproduct_serial_number":"1","product_idproduct":"1","order_line_idorder_line":"1","serial":"","date_create":"2017-09-14 14:42:28","date_update":null,"date_delete":null,"active":"1","section_idsection":null}]
[{"id_product_wholesale_price":"1","product_idproduct":"1","unit_price":"0.00","qtd":"1","price_for_quantity":"0.00","date_create":"2017-09-14 14:42:35","date_update":null,"date_delete":null,"active":"1"}]
[{"idsection":"2","shelf_idshelf":"1","name":"section1","position_left":"0","date_create":"2017-09-14 14:45:33","date_update":null,"date_delete":null,"fixed":"0","active":"1"}]
[{"idproduct_in_section":"2","product_idproduct":"1","qty":"1","section_idsection":"2","date":"2017-09-14 15:08:25","expiration_date":null,"date_create":"2017-09-14 15:08:25","date_update":null,"date_delete":null,"active":"1"}]
[{"idproduct_wty":"1","warranty_idwarranty":"1","product_idproduct":"1","value":"0.00","date_create":"2017-09-14 15:15:41","date_update":null,"date_delete":null,"active":"1"}]
[{"idorder_line":"1","order_idorder":"3","product_idproduct":"1","size_color_idsize_color":null,"warranty_idwarranty":null,"value_warranty":"0.00","date_warranty":null,"extra_info":null,"value":"10.00","actual_value":"10.00","tax":"40.00","qty":"1","discount":"0","discount_reason":null,"returned":"0.00","returned_reason":null,"date_return":null,"date_create":"2017-08-22 12:46:59","date_update":null,"date_delete":null,"active":"1"}, {"idorder_line":"2","order_idorder":"5","product_idproduct":"1","size_color_idsize_color":null,"warranty_idwarranty":null,"value_warranty":"0.00","date_warranty":null,"extra_info":null,"value":"45.00","actual_value":"45.00","tax":"78.00","qty":"1","discount":"0","discount_reason":null,"returned":"0.00","returned_reason":null,"date_return":null,"date_create":"2017-08-22 12:58:26","date_update":null,"date_delete":null,"active":"1"}, {"idorder_line":"4","order_idorder":"9","product_idproduct":"1","size_color_idsize_color":null,"warranty_idwarranty":null,"value_warranty":"0.00","date_warranty":null,"extra_info":null,"value":"10.00","actual_value":"10.00","tax":"10.00","qty":"5","discount":"0","discount_reason":null,"returned":"0.00","returned_reason":null,"date_return":null,"date_create":"2017-08-22 14:49:32","date_update":null,"date_delete":null,"active":"1"}, {"idorder_line":"5","order_idorder":"8","product_idproduct":"1","size_color_idsize_color":null,"warranty_idwarranty":null,"value_warranty":"0.00","date_warranty":null,"extra_info":null,"value":"40.00","actual_value":"40.00","tax":"2.00","qty":"10","discount":"0","discount_reason":null,"returned":"0.00","returned_reason":null,"date_return":null,"date_create":"2017-08-22 14:51:55","date_update":null,"date_delete":null,"active":"1"}, {"idorder_line":"8","order_idorder":"11","product_idproduct":"1","size_color_idsize_color":null,"warranty_idwarranty":null,"value_warranty":"0.00","date_warranty":null,"extra_info":null,"value":"10.00","actual_value":"50.00","tax":"0.00","qty":"10","discount":"20","discount_reason":null,"returned":"0.00","returned_reason":null,"date_return":null,"date_create":"2017-08-23 09:09:24","date_update":null,"date_delete":null,"active":"1"}]
[{"idwarranty":"1","name":"warranty1","duration":"1","duration_unit":"0","date_create":"2017-09-14 15:15:28","date_update":null,"date_delete":null,"active":"1"}]
[{"idsettings":"3","language_idlanguage":"1","screen_idscreen":"1","sms_platform_idsms_platform":"1","import_only_prod_name":"0","print_sold_prod_at_closure":"0","product_numeration_min":null,"product_numeration_max":null,"apply_discount_invoice":"0","date_create":"2017-09-12 11:46:52","date_update":null,"date_delete":null,"active":"1","invoice_sn":"1","pos_closure_log_sn":"1","accounting_report_sn":"1","invoice_report_sn":"1","webshop_sale_report_sn":"1","show_pos_session_ir":"0","show_pos_session_ar":"0","show_project_of_sale":"0","password_admin":"","password_setup":"","password_closure":"","password_products":"","password_cancel_o":"","password_cancel_p":"","sender_mail":null,"alerts_mail":null,"use_default_email_soft":"0","sms_user":null,"sms_password":null,"send_sms_at_closure":"0","mobile_sms_receiver":null,"exchange_platform_idexchange_platform":"1","exchange_password":null,"exchange_user":null,"closure_info":null,"print_qty_prod_sold_at_closure":"0","print_money_coin_in_draw":"0","include_sale_by_tax":"0","use_common_printer":"0","print_discount_at_closure":"0","qty_credit_note_to_print":"2","credit_note_extra_info":null,"print_credit_note_use_status":"0","print_gift_card_use_status":"0","qty_invoice_to_print":"1","inv_qty_decimals":"2","inv_use_common_printer":"0","inv_print_value_inc_tax":"0","inv_print_project_info":"0","inv_folder":"","closure_canceled_order":"0","closure_canceled_prod":"0","closure_draw_opening":"0","rep_closure_gen_pdf":"0","rep_closure_send_report":"0","rep_closure_show_screen":"0","rep_closure_print":"0","rep_inv_closure_gen_pdf":"0","rep_inv_closure_send_report":"0","rep_inv_closure_show_screen":"0","rep_inv_closure_print":"0","rep_inv_detailed":"0","rep_inv_send_cred_adm":"0","rep_web_pay_gen_pdf":"0","rep_web_pay_send_report":"0","rep_web_pay_show_screen":"0","rep_web_pay_print":"0","rep_web_pay_detailed":"0"}]
[{"idsettingsaccounting":"1","data_type":"tipo1","data_value":"value1","date_create":"2017-09-12 11:47:20","date_update":null,"date_delete":null,"active":"1"}]
[{"idsettingsadditional":"1","data_type":"addtional tipe 1","data_value":"addtional value 1","date_create":"2017-09-12 11:48:02","date_update":null,"date_delete":null,"active":"1"}]
[{"idsettingsfactoring":"1","company_factoring":"1","name":"factorin1","address":"qweqwe","cod_postal":"","invoice_text":"","bank_account":"","kid_layout":"","client_id":"0","email":null,"add_invoice_text":null,"date_create":"2017-09-12 11:50:06","date_update":null,"date_delete":null,"active":"1"}]
[{"idcompanyfactoring":"1","name":"None","date_create":"2017-03-17 18:13:44","date_update":null,"date_delete":null,"active":"1"}, {"idcompanyfactoring":"2","name":"SG Finans","date_create":"2017-03-17 18:13:44","date_update":null,"date_delete":null,"active":"1"}, {"idcompanyfactoring":"3","name":"Svea Finans","date_create":"2017-03-17 18:13:44","date_update":null,"date_delete":null,"active":"1"}, {"idcompanyfactoring":"4","name":"Gothia Finans","date_create":"2017-03-17 18:13:44","date_update":null,"date_delete":null,"active":"1"}, {"idcompanyfactoring":"5","name":"DnB","date_create":"2017-03-17 18:13:44","date_update":null,"date_delete":null,"active":"1"}, {"idcompanyfactoring":"6","name":"Nordea Finans","date_create":"2017-03-17 18:13:44","date_update":null,"date_delete":null,"active":"1"}]
[{"idsettingsgeneral":"1","data_type":"tipo general 1","data_value":"valor general 1","date_create":"2017-09-12 11:51:06","date_update":null,"date_delete":null,"active":"1"}]
[{"idexchange_platform":"1","name":"exchange_plataform1","date_create":"2017-09-12 11:45:40","date_update":null,"date_delete":null,"active":"1"}]
[{"idscreen":"1","name":"screen1","date_create":"2017-09-12 11:40:30","date_update":null,"date_delete":null,"active":"1"}]
[{"idsms_platform":"1","name":"plataform1","date_create":"2017-09-12 11:42:41","date_update":null,"date_delete":null,"active":"1"}]
